<?xml version="1.0" encoding="utf-8"?>
<!-- Generator: Adobe Illustrator 22.0.1, SVG Export Plug-In . SVG Version: 6.00 Build 0)  -->
<svg version="1.1" id="Layer_1" xmlns="http://www.w3.org/2000/svg" xmlns:xlink="http://www.w3.org/1999/xlink" x="0px" y="0px"
	 viewBox="0 0 187.9 100.6" style="enable-background:new 0 0 187.9 100.6;" xml:space="preserve">
<style type="text/css">
	.st0{fill:#808184;}
	.st1{fill:none;}
	.st2{fill:#FFFFFF;}
	.st3{font-family:'Scada-Regular';}
	.st4{font-size:12px;}
	.st5{fill:#231F20;}
	.st6{fill:#1C314F;}
	.st7{fill:#D2A983;}
	.st8{fill:#A76A52;}
	.st9{fill:#B9806C;}
	.st10{opacity:0.32;fill:#C6976E;enable-background:new    ;}
	.st11{fill:#BE1E2D;}
	.st12{fill:#404041;}
	.st13{fill:#6D6E70;}
	.st14{fill:#A6A8AB;}
	.st15{fill:#F4EBDC;}
	.st16{fill:#D0D2D3;}
	.st17{fill:#58595B;}
	.st18{fill:#696058;}
	.st19{fill:#4F4944;}
	.st20{fill:#544E46;}
	.st21{fill:#413C36;}
	.st22{fill:#383638;}
	.st23{fill:#7C8596;}
</style>
<g id="address-layer">
	<rect y="67.8" class="st0" width="110.7" height="19"/>
	<rect x="2.7" y="72.7" class="st1" width="100" height="13"/>
	<text id="_x32_5-delano-drive" transform="matrix(1 0 0 1 7.9047 81.126)" class="st2 st3 st4">25 Delano DrIVE</text>
</g>
<g id="ally-tv-layer">
	<path id="XMLID_60_" class="st5" d="M177.9,24.8c-0.4-1.5-0.1-1,0.3-2.4c0,0-0.1,0-0.2,0.1c0.7-1.4,1-3,1-4.6
		c0-6.3-5.3-11.4-11.8-11.4s-11.8,5.1-11.8,11.4c0,1.6,0.4,3.2,1,4.6h-0.1c0.4,1.4,0.7,0.8,0.3,2.4c-0.3,1.3-1.2,1.7-1.2,1.7
		s1.4-0.5,1.7-0.9c0.2-0.2,0.6-0.6,0.7-0.8l0,0c-0.1,0.2-0.3,0.6,0,1.6c0.3,1.2,1.7,2.1,1.7,2.1s-0.8-1-0.6-2.1c0,0,0,0.4,1.3,1.6
		s4.2,2.5,4.2,2.5h4.9c0,0,3.3-1.2,4.6-2.5c1.3-1.2,1.3-1.6,1.3-1.6c0.2,1.1-0.6,2.1-0.6,2.1s1.4-0.8,1.7-2.1c0.3-1.2,0-1.7,0-1.7
		s0.6,0.6,0.8,0.8c0.3,0.3,1.7,0.9,1.7,0.9S178.2,26.1,177.9,24.8"/>
	<path class="st6" d="M160.2,94.3h4.6L167,62c0.2,0,0.4,0,0.6,0l2.8,32.2h4.3c0-2.4,0.8-34.9-0.7-42.4l-13.6-0.1
		C160.5,52.1,160.1,94.6,160.2,94.3z"/>
	<path class="st2" d="M184,38.3c-3.3-4.1-7.2-7.5-7.2-7.5l0,0v-0.1c-2.4-0.5-4.8-0.8-7.1-0.8c-0.1,1.5-1.1,2.7-2.6,2.7
		s-2.4-1.1-2.6-2.5c-3.6,0.3-6.2,0.9-6.6,1l0,0l0,0h-0.1c0,0,0,0,0,0.1c-0.6,0.5-4.8,4.3-8,8.6c-0.5,0.6-0.4,1.3-0.1,1.9
		c0.6,1.1,2,1.9,3,2c0.4,0,0.7,0,1-0.3c1.3-1.4,3.1-3.3,4.3-4.8c0.2,4,0.5,8.9,0.8,13c0.2-0.1,0.5-0.3,0.7-0.5
		c0.4-0.4,0.7-0.8,1.1-1.1c0.5-0.5,1.1-0.8,1.8-0.5c0.1,0,0.1,0.2,0,0.3c-0.3,0.4-0.7,0.7-1,1c0.4-0.1,0.7-0.1,1.1-0.1
		c0.7,0.1,1.5,0.5,1.5,1.2c0,0.1-0.1,0.2-0.2,0.2c-0.6,0.1-1.3,0.1-1.9,0.1c1,0.3,2.2,0.6,2.2,1.7c0,0.1-0.1,0.2-0.2,0.2
		c-1-0.1-1.8-0.8-2.8-0.7c1,0.5,1.9,1.3,1.7,2.5c0,0.1-0.2,0.2-0.3,0.1c-0.7-0.6-1.5-1.1-2.5-0.9c-0.3,0.1-0.6,0.1-0.9,0.2
		c0.3,2.9,0.5,5,0.8,5.5c0.4,0.9,4.7,1.5,7.2-0.8c2.5-2.4,7.1-3.1,8-5l0,0c-0.2,0-0.4-0.1-0.6-0.1c-1-0.2-1.8,0.3-2.5,0.9
		c-0.1,0.1-0.3,0-0.3-0.1c-0.1-1.2,0.7-2,1.7-2.5c-1-0.2-1.8,0.6-2.8,0.7c-0.1,0-0.2-0.1-0.2-0.2c0-1.1,1.2-1.4,2.2-1.7
		c-0.6-0.1-1.3,0-1.9-0.1c-0.1,0-0.2-0.1-0.2-0.2c0-0.8,0.8-1.2,1.5-1.2c0.4,0,0.8,0,1.1,0.1c-0.4-0.3-0.7-0.7-1-1
		c-0.1-0.1-0.1-0.2,0-0.3c0.7-0.3,1.2,0.1,1.8,0.5c0.4,0.3,0.7,0.7,1.1,1.1l0.1,0.1c0.2-3.6,0.6-8.9,0.9-13.1c0.9,1.1,2.3,2.7,3.6,4
		c0.3,0.3,0.7,0.5,1.1,0.5c1.2,0.1,2.8-0.7,3.3-1.9C184.6,39.8,184.6,39,184,38.3z"/>
	<path class="st7" d="M174.1,14.6c-0.3-0.4-0.5-0.8-0.7-1l-3-4.4L170.3,9c-4.3,1.6-5.6,5.2-5.9,7c-0.1,0.7-0.1,1.2-0.1,1.2
		s-1.4-1.6-0.7-3.4l0,0c-1.3,0.4-2.1,1.4-2.5,2.6c-0.9,2.3-0.7,5.2-0.7,5.2s-1.4-1.9-1.1-4.3s1.5-4.6,1.5-4.6s-2.8,3.5-2.8,6.4
		c0,2,0.3,3.6,0.7,4.7c1.3,2.4,3.3,4.3,5.9,5.1v0.8c0,0.1,0,0.3,0,0.4c0.1,1.4,1.1,2.5,2.6,2.5s2.5-1.2,2.6-2.7c0-0.1,0-0.2,0-0.3
		v-0.9c2.7-0.9,4.6-3,6-5.5c0.2-0.9,0.3-2,0.3-3.4C176,18,174.9,15.9,174.1,14.6z"/>
	<path class="st7" d="M184.3,40.5c-0.6,1.2-2.1,2-3.3,1.9c1.3,1.3,2.5,2.5,2.5,2.5c-1.4,0.8-5.5,5.1-7,6.7l0,0h-0.1
		c-0.4-0.1-0.8-0.3-1.1-0.6l-0.1-0.1c-0.4-0.4-0.7-0.8-1.1-1.1c-0.5-0.5-1.1-0.8-1.8-0.5c-0.1,0-0.1,0.2,0,0.3c0.3,0.4,0.7,0.7,1,1
		c-0.4-0.1-0.7-0.1-1.1-0.1c-0.7,0.1-1.5,0.5-1.5,1.2c0,0.1,0.1,0.2,0.2,0.2c0.6,0.1,1.3,0.1,1.9,0.1c-1,0.3-2.2,0.6-2.2,1.7
		c0,0.1,0.1,0.2,0.2,0.2c1-0.1,1.8-0.8,2.8-0.7c-1,0.5-1.9,1.3-1.7,2.5c0,0.1,0.2,0.2,0.3,0.1c0.7-0.6,1.5-1.1,2.5-0.9
		c0.2,0,0.4,0.1,0.6,0.1c0.3,0.1,0.5,0.1,0.8,0.1c0.6-0.1,1-0.3,1.3-0.7c1.9-1.2,10.5-6.9,10.5-8.4C187.8,44.9,186,42.6,184.3,40.5z
		"/>
	<path class="st7" d="M161.9,52.1c0.6-0.1,1.3-0.1,1.9-0.1c0.1,0,0.2-0.1,0.2-0.2c0-0.8-0.8-1.2-1.5-1.2c-0.4,0-0.8,0-1.1,0.1
		c0.4-0.3,0.7-0.7,1-1c0.1-0.1,0.1-0.2,0-0.3c-0.7-0.3-1.2,0.1-1.8,0.5c-0.4,0.3-0.7,0.7-1.1,1.1c-0.2,0.2-0.4,0.4-0.7,0.5
		c-0.2,0.1-0.4,0.2-0.6,0.3c0,0,0,0-0.1,0l0,0c-1.5-1.6-5.6-6-7-6.7c0,0,0.7-0.7,1.5-1.5c-1-0.1-2.5-1-3-2c-1.5,1.9-2.8,3.8-2.8,4.5
		c0,1.5,8.7,7.2,10.5,8.4c0.3,0.4,0.8,0.7,1.3,0.7c0.1,0,0.2,0,0.4,0c0.3,0,0.6-0.1,0.9-0.2c1-0.2,1.8,0.3,2.5,0.9
		c0.1,0.1,0.3,0,0.3-0.1c0.1-1.2-0.7-2-1.7-2.5c1-0.2,1.8,0.6,2.8,0.7c0.1,0,0.2-0.1,0.2-0.2C164.1,52.7,162.9,52.4,161.9,52.1z"/>
	<path class="st8" d="M168,25.3c0,0-0.5,0.2-0.8,0.2c-0.5,0-0.9-0.2-0.9-0.2c-1.4,0-2.2-0.5-2.2-0.5s1.4,1.9,3.1,1.8
		c1.6,0.1,3-1.6,3.1-1.8C170.1,24.9,169.3,25.2,168,25.3z"/>
	<path class="st9" d="M170.3,24.7c-1.5-0.5-1.4-0.4-2.1-0.4c-0.5-0.1-0.8,0.3-1,0.3s-0.5-0.2-1-0.2c-0.6,0-1-0.1-2.1,0.3
		c0,0.1,0.8,0.5,2.2,0.5c0,0,0.4,0.2,0.9,0.2c0.3,0,0.8-0.2,0.8-0.2C169.3,25.2,170.1,24.9,170.3,24.7
		C170.3,24.8,170.3,24.7,170.3,24.7L170.3,24.7z"/>
	<path id="XMLID_45_" class="st10" d="M165.3,21.8c0-0.8,1.4-0.3,1.9-0.3c0.4,0,1.5-0.2,1.6-0.2c0.7,0.5-0.7,1.4-1.6,1.4
		C167,22.7,165.4,22.3,165.3,21.8z"/>
	<path class="st2" d="M172.8,17.8c0,0.4-0.3,0.8-0.7,0.8s-0.8-0.3-0.8-0.7c0-0.2,0.1-0.3,0.2-0.5c-0.7,0-1.5,0.1-2.2,0.4
		c0,0.1-0.1,0.1-0.1,0.2c0,0.5,1.1,0.8,2.4,0.7c1.3-0.1,2.3-0.5,2.3-1v-0.1c-0.3,0-1-0.2-1.1-0.2C172.7,17.5,172.8,17.6,172.8,17.8z
		"/>
	<path class="st5" d="M173.9,17.6c0.2-0.6-2-0.9-2.2-0.9c-0.9,0-2,0.3-2.6,1c0,0.1,0,0.2,0.1,0.1h0.1c0.7-0.3,1.5-0.4,2.2-0.4
		c-0.1,0.1-0.2,0.3-0.2,0.5c0,0.4,0.4,0.7,0.8,0.7s0.7-0.4,0.7-0.8c0-0.2-0.1-0.3-0.2-0.4c0.1,0,0.8,0.2,1.1,0.2
		C173.9,17.6,173.9,17.6,173.9,17.6z"/>
	<path class="st2" d="M163.2,17.4c0.1,0.1,0.1,0.2,0.2,0.4c0,0.4-0.3,0.8-0.7,0.8s-0.8-0.3-0.8-0.7c0-0.2,0.1-0.3,0.2-0.5
		c-0.7,0-1.5,0.1-2.2,0.4c0,0.1-0.1,0.1-0.1,0.2c0,0.5,1.1,0.8,2.4,0.7c1.3-0.1,2.3-0.5,2.3-1v-0.1
		C164.1,17.6,163.3,17.4,163.2,17.4L163.2,17.4z"/>
	<path class="st5" d="M164.4,17.6c0.1,0,0.1,0,0.1,0c0.2-0.6-2-0.9-2.2-0.9c-0.9,0-2,0.3-2.6,1c0,0.1,0,0.2,0.1,0.1h0.1
		c0.7-0.3,1.5-0.4,2.2-0.4c-0.1,0.1-0.2,0.3-0.2,0.5c0,0.4,0.4,0.7,0.8,0.7s0.7-0.4,0.7-0.8c0-0.2-0.1-0.3-0.2-0.4l0,0
		C163.3,17.4,164.1,17.6,164.4,17.6z"/>
	<path class="st11" d="M177.9,15.1c0-0.3-0.1-0.3-0.4-0.4c-0.3,0-2.7,0-4.4-0.1c-1.8,0-3.5,0.2-4.2,0.6s-1.5,0.4-1.8,0.4
		s-1.1,0-1.8-0.4s-2.5-0.7-4.2-0.7c-1.8,0-4.1-0.1-4.4-0.1s-0.4,0-0.4,0.3s-0.1,1.6,0.3,1.9c0.4,0.4,0.5,0.6,0.6,1
		c0.1,0.3,0.6,3.3,4.1,3.5c3.6,0.2,4.5-2.6,4.7-3.1s0.8-0.8,1.1-0.8s0.9,0.3,1.1,0.8c0.1,0.5,1,3.3,4.6,3.2c3.6-0.1,4.1-3,4.2-3.4
		c0.1-0.3,0.2-0.6,0.6-1C178,16.6,177.9,15.4,177.9,15.1z M165.3,18.4c-0.6,1.9-2.6,2.4-3.8,2.3c-3.6-0.1-3.6-3.6-3.6-4.5
		c0-0.8,0.3-0.9,1.4-1.1c1.1-0.1,3.7-0.1,5,0.4C165.7,15.9,165.9,16.4,165.3,18.4z M172.5,20.8c-1.2,0-3.2-0.5-3.7-2.4
		s-0.4-2.4,1-2.8c1.4-0.4,4-0.4,5-0.2c1.1,0.2,1.4,0.3,1.4,1.1C176.2,17.3,176.1,20.8,172.5,20.8z"/>
	<polygon class="st5" points="133,51.1 132.2,50.6 126.3,61.7 127.4,61.7 	"/>
	<polygon class="st5" points="111.3,50.6 110.5,51.1 116.1,61.7 117.2,61.7 	"/>
	<polygon class="st12" points="138.7,100.6 139.6,100.6 139.6,92.3 137.3,92.3 	"/>
	<polygon class="st12" points="108.6,100.6 109.6,100.6 111,92.3 108.6,92.3 	"/>
	<polygon class="st12" points="127.4,61.7 126.3,61.7 117.2,61.7 116.1,61.7 102.7,61.7 102.7,92.3 108.6,92.3 111,92.3 137.3,92.3 
		139.6,92.3 146.2,92.3 146.2,61.7 	"/>
	<rect x="137.3" y="61.7" class="st13" width="8.9" height="30.6"/>
	<path class="st12" d="M141.9,69.1c-1.7,0-3-1.4-3-3c0-1.7,1.4-3,3-3c1.7,0,3,1.4,3,3S143.6,69.1,141.9,69.1z"/>
	<path class="st5" d="M141.9,67.7c-0.9,0-1.6-0.7-1.6-1.6s0.7-1.6,1.6-1.6s1.6,0.7,1.6,1.6S142.8,67.7,141.9,67.7z"/>
	
		<rect x="140.5" y="65.9" transform="matrix(0.7641 -0.6451 0.6451 0.7641 -9.1662 107.1222)" class="st14" width="2.8" height="0.4"/>
	<path class="st14" d="M141.9,75.9c-0.9,0-1.7-0.4-2.3-1.1c-0.5-0.6-0.8-1.4-0.7-2.2c0.1-0.8,0.4-1.5,1.1-2c0.5-0.5,1.2-0.7,1.9-0.7
		c0.9,0,1.7,0.4,2.3,1.1c1.1,1.3,0.9,3.2-0.4,4.3C143.3,75.6,142.6,75.9,141.9,75.9z"/>
	<path class="st12" d="M141.9,74.4c-0.5,0-0.9-0.2-1.2-0.6c-0.6-0.7-0.5-1.7,0.2-2.3c0.3-0.2,0.7-0.4,1-0.4c0.5,0,0.9,0.2,1.2,0.6
		c0.3,0.3,0.4,0.7,0.4,1.2c0,0.4-0.2,0.8-0.6,1.1C142.7,74.3,142.3,74.4,141.9,74.4z"/>
	
		<rect x="140.5" y="72.6" transform="matrix(0.1709 -0.9853 0.9853 0.1709 45.9921 200.1751)" class="st15" width="2.8" height="0.4"/>
	<rect x="137.5" y="76.8" class="st16" width="8.5" height="0.4"/>
	<rect x="137.5" y="78" class="st16" width="8.5" height="0.4"/>
	<rect x="137.5" y="79.2" class="st16" width="8.5" height="0.4"/>
	<rect x="137.5" y="80.3" class="st16" width="8.5" height="0.4"/>
	<rect x="137.5" y="81.5" class="st16" width="8.5" height="0.4"/>
	<rect x="137.5" y="82.7" class="st16" width="8.5" height="0.4"/>
	<rect x="137.5" y="83.9" class="st16" width="8.5" height="0.4"/>
	<rect x="137.5" y="85.1" class="st16" width="8.5" height="0.4"/>
	<rect x="137.5" y="86.2" class="st16" width="8.5" height="0.4"/>
	<rect x="137.5" y="87.4" class="st16" width="8.5" height="0.4"/>
	<rect x="137.5" y="88.6" class="st16" width="8.5" height="0.4"/>
	<rect x="137.5" y="89.8" class="st16" width="8.5" height="0.4"/>
	<rect x="137.5" y="90.9" class="st16" width="8.5" height="0.4"/>
	<path class="st5" d="M131.6,89.8h-22.8c-2,0-3.6-1.6-3.6-3.6V67.7c0-2,1.6-3.6,3.6-3.6h22.8c2,0,3.6,1.6,3.6,3.6v18.5
		C135.1,88.2,133.5,89.8,131.6,89.8z"/>
	<path class="st17" d="M131.6,88.2h-22.8c-1.1,0-2-0.9-2-2V67.7c0-1.1,0.9-2,2-2h22.8c1.1,0,2,0.9,2,2v18.5
		C133.5,87.3,132.6,88.2,131.6,88.2z"/>
	<path class="st7" d="M177.5,97.2l-3.1-0.6v-1.8h-4v2.6c-0.2,0.4-0.3,0.9-0.3,1.3c0,0.9,0,1.7,1.7,1.7h5.6c0.9,0,1.7-0.5,1.7-1.5
		C179.2,98.4,178.8,97.6,177.5,97.2z"/>
	<path class="st18" d="M175.3,98c0-1.1,0.9-1.1,0.9-1.1l0,0l1.4,0.3c1.4,0.4,1.8,1.2,1.7,1.7c0,1-0.8,1.5-1.8,1.5h-5.8
		c-1.8,0-1.8-0.8-1.8-1.8c0-0.4,0.2-1.1,0.4-1.6C170.5,98.4,175.3,98,175.3,98z"/>
	<path class="st19" d="M171.8,100.4c-0.9,0-1.4-0.2-1.6-0.6c5,0.3,8.7,0,8.7,0c-0.3,0.4-0.8,0.6-1.4,0.6H171.8z"/>
	<path class="st2" d="M175.3,98l0.1,0.1c0.1,0.1,0.2,0.2,0.3,0.3c0.1,0,0.2,0.1,0.2,0.2c-0.1,0.2-0.3,0.1-0.4,0.1
		c-0.2-0.1-0.4-0.2-0.5-0.3c-0.1-0.1-0.2-0.2-0.3-0.3l-0.1-0.2L175.3,98z"/>
	<path class="st7" d="M164.5,97.4v-1.3h-4v0.6l-3.1,0.6c-1.4,0.4-1.7,1.2-1.7,1.6c0,0.9,0.8,1.5,1.7,1.5h5.6c1.7,0,1.7-0.8,1.7-1.7
		C164.8,98.3,164.7,97.8,164.5,97.4z"/>
	<path class="st20" d="M159.7,98c0-1.1-0.9-1.1-0.9-1.1l0,0l-1.4,0.3c-1.4,0.4-1.8,1.2-1.7,1.7c0,1,0.8,1.5,1.8,1.5h5.8
		c1.8,0,1.8-0.8,1.8-1.8c0-0.4-0.2-1.1-0.4-1.6C164.4,98.4,159.7,98,159.7,98z"/>
	<path class="st21" d="M163.2,100.4c0.9,0,1.4-0.2,1.6-0.6c-5,0.3-8.7,0-8.7,0c0.3,0.4,0.8,0.6,1.4,0.6H163.2z"/>
	<path class="st2" d="M159.7,98l-0.1,0.1c-0.1,0.1-0.2,0.2-0.3,0.3c-0.1,0-0.2,0.1-0.2,0.2c0.1,0.2,0.3,0.1,0.4,0.1
		c0.2-0.1,0.4-0.2,0.5-0.3c0.1-0.1,0.2-0.2,0.3-0.3l0.1-0.2C160.5,98,159.7,98,159.7,98z"/>
	<path class="st22" d="M179.8,9.2L179.8,9.2c-0.8-2.8-2.1-4.3-2.1-4.3l0,0c-0.6-1-1.5-2-2.6-2.9c-2.2-2-3.6-1.6-5.5-1.5l0,0
		c-0.8-0.2-5.2-1-7.8-0.1c-2.9,1.1-5.2,2.9-6.9,7.8c-0.4,1.2-0.6,2.4-0.7,3.5l-0.1-0.1c0,0-1.8,9.2,1.6,13.5c0,0-0.8-2.6-0.4-4.8
		c1.5,4.6,5.5,7.4,5.5,7.4s-1.2-1.5-1.8-2.9c-0.1-0.3-0.3-0.7-0.4-1.2c-0.3-1.1-0.7-2.7-0.7-4.7c0-2.9,2.8-6.4,2.8-6.4
		s-1.3,2.2-1.5,4.6c-0.3,2.4,1.1,4.3,1.1,4.3s-0.3-2.9,0.7-5.2c0.5-1.2,1.3-2.2,2.5-2.6l0,0c-0.7,1.9,0.7,3.4,0.7,3.4s0-0.5,0.1-1.2
		c0.4-1.9,1.6-5.4,5.9-7l0.1,0.2l3,4.4c0.1,0.2,0.4,0.5,0.7,1c0.8,1.3,2,3.4,2,5.2c0,1.3-0.1,2.4-0.3,3.4c-0.2,1.1-0.5,1.9-0.7,2.5
		c-0.6,1.5-1.8,2.9-1.8,2.9s3.7-2.6,5.3-6.8l0,0c0.4-0.9,0.7-1.9,1-2.7c0.2,1.9-0.2,3.8-0.2,3.8C182.3,18.1,179.8,9.2,179.8,9.2z"/>
	<rect x="170.2" y="94.3" class="st23" width="4.6" height="1.7"/>
	<rect x="160.2" y="94.3" class="st23" width="4.6" height="1.7"/>
</g>
</svg>
